-------------------------------------------------------------------------------
Test set: com.mycompany.mavenproject1.JobServiceTest
-------------------------------------------------------------------------------
Tests run: 5, Failures: 0, Errors: 0, Skipped: 0, Time elapsed: 0.004 sec
